<<<<<<< HEAD
595250, 521, 209180, 147, 803740, 783722, 15324, 318, 4233, 143, 21, 2, 10, 8, 1, 0, 668
173848, 4099, 87483, 5, 220184, 219299, 1, 2, 52, 830, 36931, 57, 0, 15522, 21343, 9, 4104
172300, 0, 86364, 4, 217544, 216552, 0, 2, 47, 943, 36914, 44, 0, 12684, 24180, 6, 4
172293, 0, 86364, 4, 217540, 216618, 0, 2, 45, 875, 36914, 44, 0, 11794, 25070, 6, 4
0, 0, 0, 0, 0, 0, 0, 0, 0, 0, 0, 0, 0, 0, 0, 0, 0
0, 0, 0, 0, 0, 0, 0, 0, 0, 0, 0, 0, 0, 0, 0, 0, 0
0, 0, 0, 0, 0, 0, 0, 0, 0, 0, 0, 0, 0, 0, 0, 0, 0
0, 0, 0, 0, 0, 0, 0, 0, 0, 0, 0, 0, 0, 0, 0, 0, 0
8514, 0, 0, 8514, 4780
=======
13199045, 17665, 6512144, 185, 19606888, 18104493, 22958, 243, 1471250, 7944, 4915, 3106, 1168, 105, 531, 5, 17850, 0, 0, 81536, 2, 65297, 16237, 17850, 0, 0
>>>>>>> temp
